<svg xmlns="http://www.w3.org/2000/svg" width="37" height="37" viewBox="0 0 37 37">
  <g id="Group_10469" data-name="Group 10469" transform="translate(-975 -211)">
    <g id="Rectangle_3937" data-name="Rectangle 3937" transform="translate(975 211)" fill="#1f1f1f" stroke="#fff" stroke-width="0.6">
      <path d="M0,0H20A17,17,0,0,1,37,17V37a0,0,0,0,1,0,0H17A17,17,0,0,1,0,20V0A0,0,0,0,1,0,0Z" stroke="none"/>
      <path d="M.6.3H20A16.7,16.7,0,0,1,36.7,17V36.4a.3.3,0,0,1-.3.3H17A16.7,16.7,0,0,1,.3,20V.6A.3.3,0,0,1,.6.3Z" fill="none"/>
    </g>
    <path id="ic_edit" d="M4.5,13.743v2.433H6.933L14.109,9,11.676,6.568ZM15.99,7.119a.646.646,0,0,0,0-.915L14.472,4.686a.646.646,0,0,0-.915,0L12.37,5.873,14.8,8.306Z" transform="translate(983.16 219.164)" fill="#fff"/>
  </g>
</svg>
