<svg xmlns="http://www.w3.org/2000/svg" width="33" height="34" viewBox="0 0 33 34">
  <g id="ic_m_delete" transform="translate(-0.36 -0.104)">
    <rect id="Rectangle_3930" data-name="Rectangle 3930" width="33" height="34" rx="6" transform="translate(0.36 0.104)" fill="#1f1f1f"/>
    <g id="Group_10211" data-name="Group 10211" transform="translate(9.728 7.2)">
      <g id="noun_Delete_61554" transform="translate(0)">
        <path id="Path_12593" data-name="Path 12593" d="M18.143,20.155V7H6V20.155a2.03,2.03,0,0,0,2.024,2.024h8.1A2.03,2.03,0,0,0,18.143,20.155Z" transform="translate(-4.988 -2.952)" fill="#fff"/>
        <rect id="Rectangle_2320" data-name="Rectangle 2320" width="14.168" height="2.024" transform="translate(0 1.011)" fill="#fff"/>
        <path id="Path_12594" data-name="Path 12594" d="M17.119,6.036,14.084,3H10.036L7,6.036Z" transform="translate(-4.976 -3)" fill="#fff"/>
      </g>
    </g>
  </g>
</svg>
